deploy/.Xil/Vivado-6302-binhkieudo-hotswap/hw_ila_data_1/zip_work/waveform.vcd
$date
        2023-Aug-18 02:03:06
$end
$version
        Vivado v2022.2 (64-bit)
$end
$timescale
        1ps
$end
$scope module dut $end
$var reg 4 " u0/serv_dtm/tap_ctrl_state [3:0] $end
$var reg 5 & u0/serv_dtm/tap_reg_ireg [4:0] $end
$var reg 2 + dmi_op [1:0] $end
$var reg 72 - u0/serv_dtm/tap_reg_dmi [71:0] $end
$var reg 32 u dmi_wdata [31:0] $end
$var reg 6 7" dmi_addr [5:0] $end
$var reg 1 =" u0/serv_dtm/i_tck $end
$var reg 1 >" _TRIGGER $end
$var reg 1 ?" _WINDOW $end
$var reg 1 @" _GAP $end
$upscope $end
$enddefinitions $end
#0
$dumpvars
b110 "
b10 &
b0 +
b1000000010000000100000000000000000000000000000000000000000000000 -
b0 u
b0 7"
1="
0>"
1?"
0@"
$end
#1
b10 "
1>"
#48
0="
#115
1="
#118
b100000000100000001000000010000000000000000000000000000000000000000000000 -
#165
0="
#238
1="
#241
b10000000010000000100000001000000000000000000000000000000000000000000000 -
#288
0="
#338
1="
#341
b1000000001000000010000000100000000000000000000000000000000000000000000 -
#388
0="
#438
1="
#441
b100000000100000001000000010000000000000000000000000000000000000000000 -
#488
0="
#538
1="
#541
b10000000010000000100000001000000000000000000000000000000000000000000 -
#588
0="
#638
1="
#641
b1000000001000000010000000100000000000000000000000000000000000000000 -
#688
0="
#738
1="
#741
b100000000100000001000000010000000000000000000000000000000000000000 -
#788
0="
#838
1="
#841
b10000000010000000100000001000000000000000000000000000000000000000 -
b100000 7"
#888
0="
#938
1="
#941
b1000000001000000010000000100000000000000000000000000000000000000 -
b10000 7"
#988
0="
#1042
1="
#1045
b100000000100000001000000010000000000000000000000000000000000000 -
b1000 7"
#1092
0="
#1142
1="
#1145
b10000000010000000100000001000000000000000000000000000000000000 -
b100 7"
#1192
0="
#1242
1="
#1245
b1000000001000000010000000100000000000000000000000000000000000 -
b10 7"
#1292
0="
#1342
1="
#1345
b100000000100000001000000010000000000000000000000000000000000 -
b1 7"
#1392
0="
#1442
1="
#1445
b10000000010000000100000001000000000000000000000000000000000 -
b10000000000000000000000000000000 u
b0 7"
#1492
0="
#1542
1="
#1545
b1000000001000000010000000100000000000000000000000000000000 -
b1000000000000000000000000000000 u
#1592
0="
#1642
1="
#1645
b100000000100000001000000010000000000000000000000000000000 -
b100000000000000000000000000000 u
b100000 7"
#1692
0="
#1742
1="
#1745
b10000000010000000100000001000000000000000000000000000000 -
b10000000000000000000000000000 u
b10000 7"
#1792
0="
#1845
1="
#1848
b1000000001000000010000000100000000000000000000000000000 -
b1000000000000000000000000000 u
b1000 7"
#1895
0="
#1945
1="
#1948
b100000000100000001000000010000000000000000000000000000 -
b100000000000000000000000000 u
b100 7"
#1995
0="
#2045
1="
