deploy/Arty_A7/.Xil/Vivado-162017-binhkieudo-hotswap/hw_ila_data_1/zip_work/waveform.vcd
$date
        2023-Aug-24 23:00:46
$end
$version
        Vivado v2022.2 (64-bit)
$end
$timescale
        1ps
$end
$scope module dut $end
$var reg 32 " u0/wb_dbus_adr [31:0] $end
$var reg 1 B u0/wb_dbus_cyc $end
$var reg 32 C u0/wb_dbus_dat [31:0] $end
$var reg 1 c u0/wb_dbus_we $end
$var reg 32 d u0/wb_dbus_rdt [31:0] $end
$var reg 32 &" u0/o_probuf_0 [31:0] $end
$var reg 32 F" u0/o_probuf_1 [31:0] $end
$var reg 32 f" u0/o_probuf_2 [31:0] $end
$var reg 1 (# u0/o_exe_req $end
$var reg 3 )# u0/o_autoexec [2:0] $end
$var reg 1 ,# u0/o_autoexec_wr $end
$var reg 1 -# u0/wb_dbus_ack $end
$var reg 1 .# _TRIGGER $end
$var reg 1 /# _WINDOW $end
$var reg 1 0# _GAP $end
$upscope $end
$enddefinitions $end
#0
$dumpvars
b11111111111111111111100010000000 "
0B
b11110100000000000000000000000000 C
0c
b0 d
b10001000000000000010010010000011 &"
b1001010010010000011 F"
b100000000000001110011 f"
0(#
b0 )#
0,#
0-#
0.#
1/#
00#
$end
#1
b11111010000000000000000000000000 C
#2
b11111101000000000000000000000000 C
#3
b11111110100000000000000000000000 C
#4
b11111111010000000000000000000000 C
#5
b11111111101000000000000000000000 C
#6
b11111111110100000000000000000000 C
#7
b11111111111010000000000000000000 C
#8
b11111111111101000000000000000000 C
#9
b11111111111110100000000000000000 C
#10
b11111111111111010000000000000000 C
#11
b11111111111111101000000000000000 C
#12
b11111111111111110100000000000000 C
#13
b11111111111111111010000000000000 C
#14
b11111111111111111101000000000000 C
#15
b11111111111111111110100000000000 C
#16
b11111111111111111111010000000000 C
#17
b11111111111111111111101000000000 C
#18
b11111111111111111111110100000000 C
#19
b11111111111111111111111010000000 C
#20
b11111111111111111111111101000000 C
#21
b11111111111111111111111110100000 C
#22
b11111111111111111111111111010000 C
#23
b11111111111111111111111111101000 C
#24
b11111111111111111111111111110100 C
#25
b11111111111111111111111111111010 C
#26
b11111111111111111111111111111101 C
#27
b11111111111111111111111111111110 C
#28
b11111111111111111111111111111111 C
#29
b1001010010010000011 d
#31
b0 d
#33
b1111111111111111111110001000000 "
b1111111111111111111111111111111 C
#34
b111111111111111111111000100000 "
b111111111111111111111111111111 C
b1000000000000000001 d
#35
b11111111111111111111100010000 "
b11111111111111111111111111111 C
b0 d
#36
b1111111111111111111110001000 "
b1111111111111111111111111111 C
#37
b111111111111111111111000100 "
b111111111111111111111111111 C
#38
b11111111111111111111100000 "
b11111111111111111111111111 C
#39
b1111111111111111111110000 "
b1111111111111111111111111 C
#40
b111111111111111111111000 "
b111111111111111111111111 C
#41
b11111111111111111111100 "
b11111111111111111111111 C
#42
b1111111111111111111100 "
b1111111111111111111111 C
#43
b111111111111111111100 "
b111111111111111111111 C
#44
b11111111111111111100 "
b11111111111111111111 C
#45
b1111111111111111100 "
b1111111111111111111 C
#46
b111111111111111100 "
b111111111111111111 C
#47
b11111111111111100 "
b11111111111111111 C
#48
b1111111111111100 "
b1111111111111111 C
#49
b111111111111100 "
b111111111111111 C
#50
b11111111111100 "
b11111111111111 C
#51
b1111111111100 "
b1111111111111 C
#52
b111111111100 "
b111111111111 C
#53
b11111111100 "
b11111111111 C
#54
b1111111100 "
b1111111111 C
#55
b111111100 "
b111111111 C
#56
b11111100 "
b11111111 C
#57
b1111100 "
b1111111 C
#58
b111100 "
b111111 C
#59
b11100 "
b11111 C
#60
b1100 "
b1111 C
#61
b100 "
b111 C
#62
b0 "
b11 C
#63
b10000000000000000000000000000000 "
b1 C
#64
b1000000000000000000000000000000 "
1B
b0 C
b1100011 d
1.#
#65
1-#
#66
0B
b1100011 C
0-#
#67
b110001 C
#68
b11000 C
#69
b1100 C
#70
b110 C
#71
b11 C
#72
b1 C
#73
b0 C
#99
b100000000000001110011 d
#100
1c
#101
b111111 C
b1100011 d
#102
b111110 C
#103
b111101 C
#104
b111100 C
#105
b111011 C
#106
b111010 C
#107
b111001 C
#108
b111000 C
#109
b110111 C
#110
b110110 C
#111
b110101 C
#112
b110100 C
#113
b110011 C
#114
b110010 C
#115
b110001 C
#116
b110000 C
#117
b101111 C
#118
b101110 C
#119
b101101 C
#120
b101100 C
#121
b101011 C
#122
b101010 C
#123
b101001 C
#124
b101000 C
#125
b100111 C
#126
b100110 C
#127
b100101 C
#128
b100100 C
#129
b100011 C
#130
b100010 C
#131
b100001 C
#132
b100000 C
#133
b11111 C
#134
b11110 C
#135
b11101 C
b1111011001001000001000001110011 d
#136
b11100 C
#137
b11011 C
b1100011 d
#138
b11010 C
#139
b11001 C
#140
b11000 C
#141
b10111 C
#142
b10110 C
#143
b10101 C
#144
b10100 C
#145
b10000000000000000000000000010011 C
#146
b1000000000000000000000000010010 C
#147
b100000000000000000000000010001 C
#148
b10000000000000000000000010000 C
#149
b1000000000000000000000001111 C
#150
b100000000000000000000001110 C
#151
b10000000000000000000001101 C
#152
b1000000000000000000001100 C
#153
b100000000000000000001011 C
#154
b10000000010000000000000000001010 C
#155
b1000000001000000000000000001001 C
#156
b100000000100000000000000001000 C
#157
b10000000010000000000000000111 C
#158
b1000000001000000000000000110 C
#159
b100000000100000000000000101 C
#160
b10000000010000000000000100 C
#161
b1000000001000000000000011 C
#162
b100000000100000000000010 C
#163
b10000000010000000000001 C
#164
b1000000001000000000000 C
#165
b100000000100000111111 C
#166
b10000000010000111110 C
#167
b1000000001000111101 C
#168
b100000000100111100 C
#169
b10000000000000010000000010111011 C
#170
b1000000000000001000000001111010 C
#171
b100000000000000100000000111001 C
b10001100000000000000000000100011 d
#172
b10000000000000010000000111000 C
#173
b1100011 d
#175
b100000000000000000000000000000 "
b1000000000000001000000011100 C
b1000000000000000001 d
#176
b10000000000000000000000000000 "
b100000000000000100000001110 C
b1100011 d
#177
b1000000000000000000000000000 "
b10000000000000010000000111 C
#178
b100000000000000000000000000 "
b1000000000000001000000011 C
#179
b10000000000000000000000000 "
b100000000000000100000001 C
#180
b1000000000000000000000000 "
b10000000000000010000000 C
#181
b10000000100000000000000000000000 "
b1000000000000001000000 C
b0 d
#182
b11000000010000000000000000000000 "
b100000000000000100000 C
#183
b1100000001000000000000000000000 "
b10000000000000010000 C
b1100011 d
#184
b110000000100000000000000000000 "
b1000000000000001000 C
b1000000000000000001 d
#185
b11000000010000000000000000000 "
b100000000000000100 C
b1100011 d
#186
b10001100000001000000000000000000 "
b10000000000000010 C
b0 d
#187
b11000110000000100000000000000000 "
b1000000000000001 C
#188
b11100011000000010000000000000000 "
b100000000000000 C
b1100011 d
#189
b11110001100000001000000000000000 "
b10000000000000 C
#190
b11111000110000000100000000000000 "
b1000000000000 C
#191
b11111100011000000010000000000000 "
b100000000000 C
#192
b11111110001100000001000000000000 "
b10000000000 C
#193
b11111111000110000000100000000000 "
b1000000000 C
b0 d
#194
b11111111100011000000010000000000 "
b100000000 C
#195
b11111111110001100000001000000000 "
b10000000 C
#196
b11111111111000110000000100000000 "
b1000000 C
#197
b11111111111100011000000010000000 "
b100000 C
#198
b11111111111110001100000001000000 "
b10000 C
#199
b11111111111111000110000000100000 "
b1000 C
#200
b11111111111111100011000000010000 "
b100 C
#201
b11111111111111110001100000001000 "
b10 C
#202
b11111111111111111000110000000100 "
b1 C
#203
b11111111111111111100011000000000 "
b0 C
#204
b11111111111111111110001100000000 "
#205
b11111111111111111111000110000000 "
#206
b11111111111111111111100011000000 "
1B
#207
b10001100000000000000000000100011 d
1-#
#208
0B
b10001100000000000000000000100011 C
0-#
#209
b1000110000000000000000000010001 C
b0 d
#210
b100011000000000000000000001000 C
#211
b10001100000000000000000000100 C
#212
b1000110000000000000000000010 C
#213
b100011000000000000000000001 C
#214
b10001100000000000000000000 C
#215
b1000110000000000000000000 C
#216
b100011000000000000000000 C
#217
b10001100000000000000000 C
#218
b1000110000000000000000 C
#219
b100011000000000000000 C
#220
b10001100000000000000 C
#221
b1000110000000000000 C
#222
b100011000000000000 C
#223
b10001100000000000 C
#224
b1000110000000000 C
#225
b100011000000000 C
#226
b10001100000000 C
#227
b1000110000000 C
#228
b100011000000 C
#229
b10001100000 C
#230
b1000110000 C
#231
b100011000 C
#232
b10001100 C
#233
b1000110 C
#234
b100011 C
#235
b10001 C
#236
b1000 C
#237
b100 C
#238
b10 C
#239
b1 C
#240
b0 C
#241
b10001100001000000100010000000011 d
#242
0c
#243
b0 d
#245
b1111111111111111111110001100000 "
#246
b10111111111111111111111000110000 "
b10000000000000000000000000000000 C
b1011011010000010000001111100000 d
#247
b1011111111111111111111100011000 "
b1000000000000000000000000000000 C
b0 d
#248
b101111111111111111111110001100 "
b100000000000000000000000000000 C
b1000000000000000001 d
#249
b10111111111111111111111000100 "
b10000000000000000000000000000 C
b0 d
#250
b1011111111111111111111100000 "
b1000000000000000000000000000 C
#251
b10000101111111111111111111110000 "
b10000100000000000000000000000000 C
#252
b11000010111111111111111111111000 "
b11000010000000000000000000000000 C
#253
b1100001011111111111111111111100 "
b1100001000000000000000000000000 C
#254
b110000101111111111111111111100 "
b110000100000000000000000000000 C
b1000000000000000001 d
#255
b11000010111111111111111111100 "
b11000010000000000000000000000 C
b0 d
#256
b10001100001011111111111111111100 "
b10001100001000000000000000000000 C
#257
b11000110000101111111111111111100 "
b11000110000100000000000000000000 C
b11111111 d
#258
b11100011000010111111111111111100 "
b11100011000010000000000000000000 C
b0 d
#259
b11110001100001011111111111111100 "
b11110001100001000000000000000000 C
#260
b11111000110000101111111111111100 "
b11111000110000100000000000000000 C
#261
b11111100011000010111111111111100 "
#262
b11111110001100001011111111111100 "
#263
b11111111000110000101111111111100 "
#264
b11111111100011000010111111111100 "
#265
b11111111110001100001011111111100 "
#266
b11111111111000110000101111111100 "
#267
b11111111111100011000010111111100 "
#268
b11111111111110001100001011111100 "
#269
b11111111111111000110000101111100 "
#270
b11111111111111100011000010111100 "
#271
b11111111111111110001100001011100 "
#272
b11111111111111111000110000101100 "
#273
b11111111111111111100011000010100 "
#274
b11111111111111111110001100001000 "
#275
b11111111111111111111000110000100 "
#276
b11111111111111111111100011000000 "
1B
#277
1-#
#278
0B
b0 C
0-#
#279
b10000000000000000000000000000000 C
#280
b11000000000000000000000000000000 C
#281
b11100000000000000000000000000000 C
#282
b11110000000000000000000000000000 C
#283
b11111000000000000000000000000000 C
#284
b11111100000000000000000000000000 C
#285
b11111110000000000000000000000000 C
#286
b11111111000000000000000000000000 C
#287
b11111111100000000000000000000000 C
#288
b11111111110000000000000000000000 C
#289
b11111111111000000000000000000000 C
#290
b11111111111100000000000000000000 C
#291
b11111111111110000000000000000000 C
#292
b11111111111111000000000000000000 C
#293
b11111111111111100000000000000000 C
#294
b11111111111111110000000000000000 C
#311
b1000001110001100011 d
#312
1c
#313
b0 d
#315
b1111111111111111111110001100000 "
b1111111111111111000000000000000 C
#316
b111111111111111111111000110000 "
b111111111111111100000000000000 C
b1000000000000000001 d
#317
b11111111111111111111100011000 "
b11111111111111110000000000000 C
b0 d
#318
b10001111111111111111111110001100 "
b1111111111111111000000000000 C
#319
b11000111111111111111111111000100 "
b111111111111111100000000000 C
b11111111 d
#320
b1100011111111111111111111100000 "
b11111111111111110000000000 C
b0 d
#321
b110001111111111111111111110000 "
b1111111111111111000000000 C
b1000000000000000001 d
#322
b11000111111111111111111111000 "
b111111111111111100000000 C
b0 d
#323
b1100011111111111111111111100 "
b11111111111111110000000 C
#324
b110001111111111111111111100 "
b1111111111111111000000 C
#325
b11000111111111111111111100 "
b111111111111111100000 C
#326
b1100011111111111111111100 "
b11111111111111110000 C
#327
b110001111111111111111100 "
b1111111111111111000 C
#328
b11000111111111111111100 "
b111111111111111100 C
#329
b1100011111111111111100 "
b11111111111111110 C
#330
b110001111111111111100 "
b1111111111111111 C
#331
b11000111111111111100 "
b111111111111111 C
#332
b1100011111111111100 "
b11111111111111 C
#333
b110001111111111100 "
b1111111111111 C
#334
b11000111111111100 "
b111111111111 C
#335
b1100011111111100 "
b11111111111 C
#336
b110001111111100 "
b1111111111 C
#337
b11000111111100 "
b111111111 C
#338
b1100011111100 "
b11111111 C
#339
b110001111100 "
b1111111 C
#340
b11000111100 "
b111111 C
#341
b1100011100 "
b11111 C
#342
b110001100 "
b1111 C
#343
b11000100 "
b111 C
#344
b1100000 "
b11 C
#345
b110000 "
b1 C
#346
b11000 "
b0 C
#348
b1100 "
#349
b100 "
#350
b0 "
#351
b1100011 d
#380
b10001100000100000100010000000011 d
#381
0c
#382
b1100011 d
#384
b10000000000000000000000000000000 "
b10000000000000000000000000000000 C
b0 d
#385
b1000000000000000000000000000000 "
b1000000000000000000000000000000 C
b1100011 d
#386
b100000000000000000000000000000 "
b100000000000000000000000000000 C
b1000000000000000001 d
#387
b10000000000000000000000000000 "
b10000000000000000000000000000 C
b1100011 d
#388
b1000000000000000000000000000 "
b1000000000000000000000000000 C
#389
b100000000000000000000000000 "
b100000000000000000000000000 C
#390
b10000010000000000000000000000000 "
b10000010000000000000000000000000 C
b0 d
#391
b11000001000000000000000000000000 "
b11000001000000000000000000000000 C
#392
b1100000100000000000000000000000 "
b1100000100000000000000000000000 C
b1100011 d
#393
b110000010000000000000000000000 "
b110000010000000000000000000000 C
b1000000000000000001 d
#394
b11000001000000000000000000000 "
b11000001000000000000000000000 C
b1100011 d
#395
b10001100000100000000000000000000 "
b10001100000100000000000000000000 C
b0 d
#396
b11000110000010000000000000000000 "
b11000110000010000000000000000000 C
#397
b11100011000001000000000000000000 "
b11100011000001000000000000000000 C
b1100011 d
#398
b11110001100000100000000000000000 "
b11110001100000100000000000000000 C
#399
b11111000110000010000000000000000 "
b11111000110000010000000000000000 C
#400
b11111100011000001000000000000000 "
b11111100011000001000000000000000 C
#401
b11111110001100000100000000000000 "
b11111110001100000100000000000000 C
#402
b11111111000110000010000000000000 "
b11111111000110000010000000000000 C
#403
b11111111100011000001000000000000 "
b11111111100011000001000000000000 C
#404
b11111111110001100000100000000000 "
b11111111110001100000100000000000 C
b0 d
#405
b11111111111000110000010000000000 "
b11111111111000110000010000000000 C
#406
b11111111111100011000001000000000 "
b11111111111100011000001000000000 C
#407
b11111111111110001100000100000000 "
b11111111111110001100000100000000 C
#408
b11111111111111000110000010000000 "
#409
b11111111111111100011000001000000 "
#410
b11111111111111110001100000100000 "
#411
b11111111111111111000110000010000 "
#412
b11111111111111111100011000001000 "
#413
b11111111111111111110001100000100 "
#414
b11111111111111111111000110000000 "
#415
b11111111111111111111100011000000 "
1B
#416
1-#
#417
0B
b0 C
0-#
#418
b10000000000000000000000000000000 C
#419
b11000000000000000000000000000000 C
#420
b11100000000000000000000000000000 C
#421
b11110000000000000000000000000000 C
#422
b11111000000000000000000000000000 C
#423
b11111100000000000000000000000000 C
#424
b11111110000000000000000000000000 C
#425
b11111111000000000000000000000000 C
#426
b11111111100000000000000000000000 C
#427
b11111111110000000000000000000000 C
#428
b11111111111000000000000000000000 C
#429
b11111111111100000000000000000000 C
#430
b11111111111110000000000000000000 C
#431
b11111111111111000000000000000000 C
#432
b11111111111111100000000000000000 C
#433
b11111111111111110000000000000000 C
#434
b11111111111111111000000000000000 C
#435
b11111111111111111100000000000000 C
#436
b11111111111111111110000000000000 C
#437
b11111111111111111111000000000000 C
#438
b11111111111111111111100000000000 C
#439
b11111111111111111111110000000000 C
#440
b11111111111111111111111000000000 C
#441
b11111111111111111111111100000000 C
#450
b11111110000001000000100011100011 d
#451
1c
#452
b0 d
#454
b1111111111111111111110001100000 "
b1111111111111111111111110000000 C
#455
b111111111111111111111000110000 "
b111111111111111111111111000000 C
b1000000000000000001 d
#456
b11111111111111111111100011000 "
b11111111111111111111111100000 C
b0 d
#457
b1111111111111111111110001100 "
b1111111111111111111111110000 C
#458
b10000111111111111111111111000100 "
b111111111111111111111111000 C
#459
b11000011111111111111111111100000 "
b11111111111111111111111100 C
#460
b11100001111111111111111111110000 "
b1111111111111111111111110 C
#461
b11110000111111111111111111111000 "
b111111111111111111111111 C
#462
b11111000011111111111111111111100 "
b11111111111111111111111 C
#463
b11111100001111111111111111111100 "
b1111111111111111111111 C
#464
b11111110000111111111111111111100 "
b111111111111111111111 C
#465
b11111111000011111111111111111100 "
b11111111111111111111 C
#466
b11111111100001111111111111111100 "
b1111111111111111111 C
#467
b11111111110000111111111111111100 "
b111111111111111111 C
#468
b11111111111000011111111111111100 "
b11111111111111111 C
#469
b11111111111100001111111111111100 "
b1111111111111111 C
#470
b11111111111110000111111111111100 "
b111111111111111 C
#471
b11111111111111000011111111111100 "
b11111111111111 C
#472
b11111111111111100001111111111100 "
b1111111111111 C
#473
b11111111111111110000111111111100 "
b111111111111 C
#474
b11111111111111111000011111111100 "
b11111111111 C
#475
b11111111111111111100001111111100 "
b1111111111 C
#476
b11111111111111111110000111111100 "
b111111111 C
#477
b11111111111111111111000011111100 "
b11111111 C
#478
b11111111111111111111100001111100 "
b1111111 C
#479
b11111111111111111111110000111100 "
b111111 C
#480
b11111111111111111111111000011100 "
b11111 C
#481
b11111111111111111111111100001100 "
b1111 C
#482
b11111111111111111111111110000100 "
b111 C
#483
b11111111111111111111111111000000 "
b11 C
#484
b11111111111111111111111111100000 "
b1 C
#485
b11111111111111111111111111110000 "
b0 C
#487
b11111111111111111111111111111000 "
#488
b11111111111111111111111111111100 "
#519
b10001100000000000000000000100011 d
#521
b0 d
#523
b1111111111111111111111111111100 "
#524
b111111111111111111111111111100 "
b1000000000000000001 d
#525
b11111111111111111111111111100 "
b0 d
#526
b1111111111111111111111111100 "
#527
b111111111111111111111111100 "
#528
b11111111111111111111111100 "
#529
b10000001111111111111111111111100 "
#530
b11000000111111111111111111111100 "
b11111111 d
#531
b1100000011111111111111111111100 "
b0 d
#532
b110000001111111111111111111100 "
b1000000000000000001 d
#533
b11000000111111111111111111100 "
b0 d
#534
b10001100000011111111111111111100 "
#535
b11000110000001111111111111111100 "
b11111111 d
#536
b11100011000000111111111111111100 "
b0 d
#537
b11110001100000011111111111111100 "
#538
b11111000110000001111111111111100 "
#539
b11111100011000000111111111111100 "
#540
b11111110001100000011111111111100 "
#541
b11111111000110000001111111111100 "
#542
b11111111100011000000111111111100 "
#543
b11111111110001100000011111111100 "
#544
b11111111111000110000001111111100 "
#545
b11111111111100011000000111111100 "
#546
b11111111111110001100000011111100 "
#547
b11111111111111000110000001111100 "
#548
b11111111111111100011000000111100 "
#549
b11111111111111110001100000011100 "
#550
b11111111111111111000110000001100 "
#551
b11111111111111111100011000000100 "
#552
b11111111111111111110001100000000 "
#553
b11111111111111111111000110000000 "
#554
b11111111111111111111100011000000 "
1B
#555
b10001100000000000000000000100011 d
1-#
#556
0B
b10001100000000000000000000100011 C
0-#
#557
b1000110000000000000000000010001 C
b0 d
#558
b100011000000000000000000001000 C
#559
b10001100000000000000000000100 C
#560
b1000110000000000000000000010 C
#561
b100011000000000000000000001 C
#562
b10001100000000000000000000 C
#563
b1000110000000000000000000 C
#564
b100011000000000000000000 C
#565
b10001100000000000000000 C
#566
b1000110000000000000000 C
#567
b100011000000000000000 C
#568
b10001100000000000000 C
#569
b1000110000000000000 C
#570
b100011000000000000 C
#571
b10001100000000000 C
#572
b1000110000000000 C
#573
b100011000000000 C
#574
b10001100000000 C
#575
b1000110000000 C
#576
b100011000000 C
#577
b10001100000 C
#578
b1000110000 C
#579
b100011000 C
#580
b10001100 C
#581
b1000110 C
#582
b100011 C
#583
b10001 C
#584
b1000 C
#585
b100 C
#586
b10 C
#587
b1 C
#588
b0 C
#589
b10001100001000000100010000000011 d
#590
0c
#591
b0 d
#593
b1111111111111111111110001100000 "
#594
b10111111111111111111111000110000 "
b10000000000000000000000000000000 C
b1011011010000010000010100111100 d
#595
b1011111111111111111111100011000 "
b1000000000000000000000000000000 C
b0 d
#596
b101111111111111111111110001100 "
b100000000000000000000000000000 C
b1000000000000000001 d
#597
b10111111111111111111111000100 "
b10000000000000000000000000000 C
b0 d
#598
b1011111111111111111111100000 "
b1000000000000000000000000000 C
#599
b10000101111111111111111111110000 "
b10000100000000000000000000000000 C
#600
b11000010111111111111111111111000 "
b11000010000000000000000000000000 C
#601
b1100001011111111111111111111100 "
b1100001000000000000000000000000 C
#602
b110000101111111111111111111100 "
b110000100000000000000000000000 C
b1000000000000000001 d
#603
b11000010111111111111111111100 "
b11000010000000000000000000000 C
b0 d
#604
b10001100001011111111111111111100 "
b10001100001000000000000000000000 C
#605
b11000110000101111111111111111100 "
b11000110000100000000000000000000 C
b11111111 d
#606
b11100011000010111111111111111100 "
b11100011000010000000000000000000 C
b0 d
#607
b11110001100001011111111111111100 "
b11110001100001000000000000000000 C
#608
b11111000110000101111111111111100 "
b11111000110000100000000000000000 C
#609
b11111100011000010111111111111100 "
#610
b11111110001100001011111111111100 "
#611
b11111111000110000101111111111100 "
#612
b11111111100011000010111111111100 "
#613
b11111111110001100001011111111100 "
#614
b11111111111000110000101111111100 "
#615
b11111111111100011000010111111100 "
#616
b11111111111110001100001011111100 "
#617
b11111111111111000110000101111100 "
#618
b11111111111111100011000010111100 "
#619
b11111111111111110001100001011100 "
#620
b11111111111111111000110000101100 "
#621
b11111111111111111100011000010100 "
#622
b11111111111111111110001100001000 "
#623
b11111111111111111111000110000100 "
#624
b11111111111111111111100011000000 "
1B
#625
1-#
#626
0B
b0 C
0-#
#627
b10000000000000000000000000000000 C
#628
b11000000000000000000000000000000 C
#629
b11100000000000000000000000000000 C
#630
b11110000000000000000000000000000 C
#631
b11111000000000000000000000000000 C
#632
b11111100000000000000000000000000 C
#633
b11111110000000000000000000000000 C
#634
b11111111000000000000000000000000 C
#635
b11111111100000000000000000000000 C
#636
b11111111110000000000000000000000 C
#637
b11111111111000000000000000000000 C
#638
b11111111111100000000000000000000 C
#639
b11111111111110000000000000000000 C
#640
b11111111111111000000000000000000 C
#641
b11111111111111100000000000000000 C
#642
b11111111111111110000000000000000 C
#659
b1000001110001100011 d
#660
1c
#661
b0 d
#663
b1111111111111111111110001100000 "
b1111111111111111000000000000000 C
#664
b111111111111111111111000110000 "
b111111111111111100000000000000 C
b1000000000000000001 d
#665
b11111111111111111111100011000 "
b11111111111111110000000000000 C
b0 d
#666
b10001111111111111111111110001100 "
b1111111111111111000000000000 C
#667
b11000111111111111111111111000100 "
b111111111111111100000000000 C
b11111111 d
#668
b1100011111111111111111111100000 "
b11111111111111110000000000 C
b0 d
#669
b110001111111111111111111110000 "
b1111111111111111000000000 C
b1000000000000000001 d
#670
b11000111111111111111111111000 "
b111111111111111100000000 C
b0 d
#671
b1100011111111111111111111100 "
b11111111111111110000000 C
#672
b110001111111111111111111100 "
b1111111111111111000000 C
#673
b11000111111111111111111100 "
b111111111111111100000 C
#674
b1100011111111111111111100 "
b11111111111111110000 C
#675
b110001111111111111111100 "
b1111111111111111000 C
#676
b11000111111111111111100 "
b111111111111111100 C
#677
b1100011111111111111100 "
b11111111111111110 C
#678
b110001111111111111100 "
b1111111111111111 C
#679
b11000111111111111100 "
b111111111111111 C
#680
b1100011111111111100 "
b11111111111111 C
#681
b110001111111111100 "
b1111111111111 C
#682
b11000111111111100 "
b111111111111 C
#683
b1100011111111100 "
b11111111111 C
#684
b110001111111100 "
b1111111111 C
#685
b11000111111100 "
b111111111 C
#686
b1100011111100 "
b11111111 C
#687
b110001111100 "
b1111111 C
#688
b11000111100 "
b111111 C
#689
b1100011100 "
b11111 C
#690
b110001100 "
b1111 C
#691
b11000100 "
b111 C
#692
b1100000 "
b11 C
#693
b110000 "
b1 C
#694
b11000 "
b0 C
#696
b1100 "
#697
b100 "
#698
b0 "
#699
b1100011 d
#728
b10001100000100000100010000000011 d
#729
0c
#730
b1100011 d
#732
b10000000000000000000000000000000 "
b10000000000000000000000000000000 C
b0 d
#733
b1000000000000000000000000000000 "
b1000000000000000000000000000000 C
b1100011 d
#734
b100000000000000000000000000000 "
b100000000000000000000000000000 C
b1000000000000000001 d
#735
b10000000000000000000000000000 "
b10000000000000000000000000000 C
b1100011 d
#736
b1000000000000000000000000000 "
b1000000000000000000000000000 C
#737
b100000000000000000000000000 "
b100000000000000000000000000 C
#738
b10000010000000000000000000000000 "
b10000010000000000000000000000000 C
b0 d
#739
b11000001000000000000000000000000 "
b11000001000000000000000000000000 C
#740
b1100000100000000000000000000000 "
b1100000100000000000000000000000 C
b1100011 d
#741
b110000010000000000000000000000 "
b110000010000000000000000000000 C
b1000000000000000001 d
#742
b11000001000000000000000000000 "
b11000001000000000000000000000 C
b1100011 d
#743
b10001100000100000000000000000000 "
b10001100000100000000000000000000 C
b0 d
#744
b11000110000010000000000000000000 "
b11000110000010000000000000000000 C
#745
b11100011000001000000000000000000 "
b11100011000001000000000000000000 C
b1100011 d
#746
b11110001100000100000000000000000 "
b11110001100000100000000000000000 C
#747
b11111000110000010000000000000000 "
b11111000110000010000000000000000 C
#748
b11111100011000001000000000000000 "
b11111100011000001000000000000000 C
#749
b11111110001100000100000000000000 "
b11111110001100000100000000000000 C
#750
b11111111000110000010000000000000 "
b11111111000110000010000000000000 C
#751
b11111111100011000001000000000000 "
b11111111100011000001000000000000 C
#752
b11111111110001100000100000000000 "
b11111111110001100000100000000000 C
b0 d
#753
b11111111111000110000010000000000 "
b11111111111000110000010000000000 C
#754
b11111111111100011000001000000000 "
b11111111111100011000001000000000 C
#755
b11111111111110001100000100000000 "
b11111111111110001100000100000000 C
#756
b11111111111111000110000010000000 "
#757
b11111111111111100011000001000000 "
#758
b11111111111111110001100000100000 "
#759
b11111111111111111000110000010000 "
#760
b11111111111111111100011000001000 "
#761
b11111111111111111110001100000100 "
#762
b11111111111111111111000110000000 "
#763
b11111111111111111111100011000000 "
1B
#764
1-#
#765
0B
b0 C
0-#
#766
b10000000000000000000000000000000 C
#767
b11000000000000000000000000000000 C
#768
b11100000000000000000000000000000 C
#769
b11110000000000000000000000000000 C
#770
b11111000000000000000000000000000 C
#771
b11111100000000000000000000000000 C
#772
b11111110000000000000000000000000 C
#773
b11111111000000000000000000000000 C
#774
b11111111100000000000000000000000 C
#775
b11111111110000000000000000000000 C
#776
b11111111111000000000000000000000 C
#777
b11111111111100000000000000000000 C
#778
b11111111111110000000000000000000 C
#779
b11111111111111000000000000000000 C
#780
b11111111111111100000000000000000 C
#781
b11111111111111110000000000000000 C
#782
b11111111111111111000000000000000 C
#783
b11111111111111111100000000000000 C
#784
b11111111111111111110000000000000 C
#785
b11111111111111111111000000000000 C
#786
b11111111111111111111100000000000 C
#787
b11111111111111111111110000000000 C
#788
b11111111111111111111111000000000 C
#789
b11111111111111111111111100000000 C
#798
b11111110000001000000100011100011 d
#799
1c
#800
b0 d
#802
b1111111111111111111110001100000 "
b1111111111111111111111110000000 C
#803
b111111111111111111111000110000 "
b111111111111111111111111000000 C
b1000000000000000001 d
#804
b11111111111111111111100011000 "
b11111111111111111111111100000 C
b0 d
#805
b1111111111111111111110001100 "
b1111111111111111111111110000 C
#806
b10000111111111111111111111000100 "
b111111111111111111111111000 C
#807
b11000011111111111111111111100000 "
b11111111111111111111111100 C
#808
b11100001111111111111111111110000 "
b1111111111111111111111110 C
#809
b11110000111111111111111111111000 "
b111111111111111111111111 C
#810
b11111000011111111111111111111100 "
b11111111111111111111111 C
#811
b11111100001111111111111111111100 "
b1111111111111111111111 C
#812
b11111110000111111111111111111100 "
b111111111111111111111 C
#813
b11111111000011111111111111111100 "
b11111111111111111111 C
#814
b11111111100001111111111111111100 "
b1111111111111111111 C
#815
b11111111110000111111111111111100 "
b111111111111111111 C
#816
b11111111111000011111111111111100 "
b11111111111111111 C
#817
b11111111111100001111111111111100 "
b1111111111111111 C
#818
b11111111111110000111111111111100 "
b111111111111111 C
#819
b11111111111111000011111111111100 "
b11111111111111 C
#820
b11111111111111100001111111111100 "
b1111111111111 C
#821
b11111111111111110000111111111100 "
b111111111111 C
#822
b11111111111111111000011111111100 "
b11111111111 C
#823
b11111111111111111100001111111100 "
b1111111111 C
#824
b11111111111111111110000111111100 "
b111111111 C
#825
b11111111111111111111000011111100 "
b11111111 C
#826
b11111111111111111111100001111100 "
b1111111 C
#827
b11111111111111111111110000111100 "
b111111 C
#828
b11111111111111111111111000011100 "
b11111 C
#829
b11111111111111111111111100001100 "
b1111 C
#830
b11111111111111111111111110000100 "
b111 C
#831
b11111111111111111111111111000000 "
b11 C
#832
b11111111111111111111111111100000 "
b1 C
#833
b11111111111111111111111111110000 "
b0 C
#835
b11111111111111111111111111111000 "
#836
b11111111111111111111111111111100 "
#867
b10001100000000000000000000100011 d
#869
b0 d
#871
b1111111111111111111111111111100 "
#872
b111111111111111111111111111100 "
b1000000000000000001 d
#873
b11111111111111111111111111100 "
b0 d
#874
b1111111111111111111111111100 "
#875
b111111111111111111111111100 "
#876
b11111111111111111111111100 "
#877
b10000001111111111111111111111100 "
#878
b11000000111111111111111111111100 "
b11111111 d
#879
b1100000011111111111111111111100 "
b0 d
#880
b110000001111111111111111111100 "
b1000000000000000001 d
#881
b11000000111111111111111111100 "
b0 d
#882
b10001100000011111111111111111100 "
#883
b11000110000001111111111111111100 "
b11111111 d
#884
b11100011000000111111111111111100 "
b0 d
#885
b11110001100000011111111111111100 "
#886
b11111000110000001111111111111100 "
#887
b11111100011000000111111111111100 "
#888
b11111110001100000011111111111100 "
#889
b11111111000110000001111111111100 "
#890
b11111111100011000000111111111100 "
#891
b11111111110001100000011111111100 "
#892
b11111111111000110000001111111100 "
#893
b11111111111100011000000111111100 "
#894
b11111111111110001100000011111100 "
#895
b11111111111111000110000001111100 "
#896
b11111111111111100011000000111100 "
#897
b11111111111111110001100000011100 "
#898
b11111111111111111000110000001100 "
#899
b11111111111111111100011000000100 "
