deploy/Arty_A7/.Xil/Vivado-10105-binhkieudo/hw_ila_data_1/zip_work/waveform.vcd
$date
        2023-Aug-21 15:40:38
$end
$version
        Vivado v2022.2 (64-bit)
$end
$timescale
        1ps
$end
$scope module dut $end
$var reg 1 " u0/spi_inst0/SCK $end
$var reg 1 # u0/spi_inst0/CSn $end
$var reg 1 $ u0/spi_inst0/MOSI $end
$var reg 1 % u0/spi_inst0/MISO $end
$var reg 2 & u0/spi_inst0/spi_seq [1:0] $end
$var reg 1 ( _TRIGGER $end
$var reg 1 ) _WINDOW $end
$var reg 1 * _GAP $end
$upscope $end
$enddefinitions $end
#0
$dumpvars
0"
0#
1$
1%
b10 &
0(
1)
0*
$end
#1
1"
b1 &
1(
#3
0"
0$
b10 &
#5
1"
b1 &
#7
0"
b10 &
#9
1"
b1 &
#11
0"
1$
b10 &
#13
1"
b1 &
#15
0"
b10 &
#17
1"
b1 &
#19
0"
b10 &
#21
1"
b1 &
#23
0"
b10 &
#25
1"
b1 &
#27
0"
b10 &
#29
1"
b1 &
#31
0"
b0 &
#32
0%
